---------------------------------------
Resource Usage Report for counter 

Mapping to part: xc7vx485tffg1157-1
Cell usage:
FDC             8 uses
GND             1 use
MUXCY_L         6 uses
XORCY           7 uses
LUT1            7 uses

I/O ports: 10
I/O primitives: 10
IBUF           1 use
IBUFG          1 use
OBUF           8 uses

BUFG           1 use

I/O Register bits:                  0
Register bits not including I/Os:   8 (0%)

Global Clock Buffers: 1 of 32 (3%)


Mapping Summary:
Total  LUTs: 7 (0%)

Distribution of All Consumed LUTs = LUT1 
Distribution of All Consumed Luts 7 = 7 


 Number of unique control sets:              1

