##### START OF AREA REPORT #####[
Design view:work.time_gen(verilog)
Selecting part EP4CE22F17C6

Total combinational functions 44 of 22320 ( 0%)
Logic element usage by number of inputs
		  4 input functions 	 10
		  3 input functions 	 0
		  <=2 input functions 	 34
Logic elements by mode
		  normal mode            12
		  arithmetic mode        32
Total registers 33 of 22320 ( 0%)
I/O pins 3 of 154 ( 2%), total I/O based on largest package of this part.

Number of I/O registers
			Input DDRs    :0
			Output DDRs   :0

DSP Blocks:     0  (0 nine-bit DSP elements).
DSP Utilization: 0.00% of available 66 blocks (132 nine-bit).
ShiftTap:       0  (0 registers)
Total ESB:      0 bits 

##### END OF AREA REPORT #####]

