# Synospys Constraint Checker(syntax only), version maprc, Build 1495R, built Mar  1 2013
# Copyright (C) 1994-2013, Synopsys, Inc. This software and the associated documentation are proprietary to Synopsys, Inc. This software may only be used in accordance with the terms and conditions of a written license agreement with Synopsys, Inc.  All other use or distribution of the software is strictly prohibited.

# Written on Tue Feb  4 11:28:14 2014


##### DESIGN INFO #######################################################

Top View:                "counter"
Constraint File(s):      (none)

#Run constraint checker to find more issues with constraints.
#########################################################################



No issues found in constraint syntax.



Clock Summary
**************

Start               Requested      Requested     Clock        Clock                
Clock               Frequency      Period        Type         Group                
-----------------------------------------------------------------------------------
counter|bus_clk     1000.0 MHz     1.000         inferred     Autoconstr_clkgroup_0
===================================================================================
