

#### START OF CLOCK OPTIMIZATION REPORT #####[

0 non-gated/non-generated clock tree(s) driving 0 clock pin(s) of sequential element(s)
1 gated/generated clock tree(s) driving 128 clock pin(s) of sequential element(s)
0 instances converted, 128 sequential instances remain driven by gated/generated clocks

= Non-Gated/Non-Generated Clocks =
************** None **************
----------------------------------
==================================
================================================= Gated/Generated Clocks =================================================
Clock Tree ID     Driving Element          Drive Element Type     Fanout     Sample Instance     Explanation              
--------------------------------------------------------------------------------------------------------------------------
@K:CKID0001       un1_n_oe_7_lut6_2_o5     LUT5                   128        mem_0_[7]           No clocks found on inputs
==========================================================================================================================


##### END OF CLOCK OPTIMIZATION REPORT ######]

