/home/diego/EDA/Synopsys/bin/m_generic  -prodtype synplify_premier -encrypt  -pro  -rundir  /home/diego/Documents/Synopsys/SystemVerilog/shift_registers/sipo/rev_1  -part AC22iHD1000  -package F53  -grade C1   -maxfan 10000 -RWCheckOnRam 0     -pipe   -fixgatedclocks 1 -fixgeneratedclocks 1      -summaryfile /home/diego/Documents/Synopsys/SystemVerilog/shift_registers/sipo/rev_1/synlog/report/proj_1_fpga_mapper.xml -flow mapping  -ovma  /home/diego/Documents/Synopsys/SystemVerilog/shift_registers/sipo/rev_1/proj_1.vma  -autoconstraint  -freq 1.000  /home/diego/Documents/Synopsys/SystemVerilog/shift_registers/sipo/rev_1/synwork/proj_1_premap.srd  -devicelib  /home/diego/EDA/Synopsys/lib/generic/speedster22i.v  -ologparam  /home/diego/Documents/Synopsys/SystemVerilog/shift_registers/sipo/rev_1/syntmp/proj_1.plg  -osyn  /home/diego/Documents/Synopsys/SystemVerilog/shift_registers/sipo/rev_1/proj_1.srm  -prjdir  /home/diego/Documents/Synopsys/SystemVerilog/shift_registers/sipo/  -prjname  proj_1  -log  /home/diego/Documents/Synopsys/SystemVerilog/shift_registers/sipo/rev_1/synlog/proj_1_fpga_mapper.srr 
rc:1 success:1
/home/diego/Documents/Synopsys/SystemVerilog/shift_registers/sipo/rev_1/proj_1.vma|o|1390426382|2687
/home/diego/Documents/Synopsys/SystemVerilog/shift_registers/sipo/rev_1/synwork/proj_1_premap.srd|i|1390426380|1660
/home/diego/EDA/Synopsys/lib/generic/speedster22i.v|i|1361857852|54342
/home/diego/Documents/Synopsys/SystemVerilog/shift_registers/sipo/rev_1/syntmp/proj_1.plg|o|1390426382|745
/home/diego/Documents/Synopsys/SystemVerilog/shift_registers/sipo/rev_1/proj_1.srm|o|1390426382|4478
/home/diego/Documents/Synopsys/SystemVerilog/shift_registers/sipo/rev_1/synlog/proj_1_fpga_mapper.srr|o|1390426382|11425
/home/diego/EDA/Synopsys/bin/m_generic|i|1361857614|345
/home/diego/EDA/Synopsys/linux/m_generic|i|1362170579|23955276
/home/diego/EDA/Synopsys/linux_a_64/m_generic|i|1362170600|26848512
