

#### START OF CLOCK OPTIMIZATION REPORT #####[

1 non-gated/non-generated clock tree(s) driving 10 clock pin(s) of sequential element(s)
0 gated/generated clock tree(s) driving 0 clock pin(s) of sequential element(s)
0 instances converted, 0 sequential instances remain driven by gated/generated clocks

============================== Non-Gated/Non-Generated Clocks ==============================
Clock Tree ID     Driving Element     Drive Element Type     Fanout     Sample Instance     
--------------------------------------------------------------------------------------------
@K:CKID0001       bus_iClk_in         cycloneive_io_ibuf     10         svbl_69.state_pff[0]
============================================================================================
===== Gated/Generated Clocks =====
************** None **************
----------------------------------
==================================


##### END OF CLOCK OPTIMIZATION REPORT ######]

