/home/diego/EDA/Synopsys/bin/c_ver  -osyn  /home/diego/Documents/Synopsys/SystemVerilog/counter_modport_interface/rev_1/synwork/proj_1_compiler.srs  -top  counter  -prodtype  synplify_premier  -dw  -dspmac -pqdpadd -primux -fixsmult -sdff_counter -infer_seqShift -verification_mode 0  -nram -divnmod -fast_synthesis 0  -loadunimacro   -I /home/diego/Documents/Synopsys/SystemVerilog/counter_modport_interface/  -I /home/diego/EDA/Synopsys/lib  -sysv  -devicelib  /home/diego/EDA/Synopsys/lib/xilinx/unisim_m10i.v  -devicelib  /home/diego/EDA/Synopsys/lib/xilinx/unisim.v  -encrypt  -pro  -dmgen  /home/diego/Documents/Synopsys/SystemVerilog/counter_modport_interface/rev_1/dm  -auto_infer_blackbox 0 -ll 2000   -proto -ui -fid2 -ram -sharing on     -autosm -D_MULTIPLE_FILE_COMPILATION_UNIT_ -lib work -fsysv /home/diego/Documents/Synopsys/SystemVerilog/counter_modport_interface/counter.sv -loga  /home/diego/Documents/Synopsys/SystemVerilog/counter_modport_interface/rev_1/proj_1.srr 
rc:0 success:1
/home/diego/Documents/Synopsys/SystemVerilog/counter_modport_interface/rev_1/synwork/proj_1_compiler.srs|o|1393632545|1858
/home/diego/EDA/Synopsys/lib/xilinx/unisim_m10i.v|i|1361857988|920617
/home/diego/EDA/Synopsys/lib/xilinx/unisim.v|i|1361857988|1184941
-fsysv|i|0|0
/home/diego/Documents/Synopsys/SystemVerilog/counter_modport_interface/counter.sv|i|1390599605|452
/home/diego/Documents/Synopsys/SystemVerilog/counter_modport_interface/rev_1/proj_1.srr|o|1393632745|2315
/home/diego/EDA/Synopsys/bin/c_ver|i|1361857614|365
/home/diego/EDA/Synopsys/linux/c_ver|i|1362117614|4921244
/home/diego/EDA/Synopsys/linux_a_64/c_ver|i|1362117641|7060864
