# Synospys Constraint Checker(syntax only), version maprc, Build 1495R, built Mar  1 2013
# Copyright (C) 1994-2013, Synopsys, Inc. This software and the associated documentation are proprietary to Synopsys, Inc. This software may only be used in accordance with the terms and conditions of a written license agreement with Synopsys, Inc.  All other use or distribution of the software is strictly prohibited.

# Written on Mon Jan 13 14:08:19 2014


##### DESIGN INFO #######################################################

Top View:                "top"
Constraint File(s):      "/home/diego/Documents/Synopsys/SystemVerilog/uart/proj_1.fdc"

#Run constraint checker to find more issues with constraints.
#########################################################################



No issues found in constraint syntax.



Clock Summary
**************

Start           Requested     Requested     Clock        Clock           
Clock           Frequency     Period        Type         Group           
-------------------------------------------------------------------------
System          1.0 MHz       1000.000      system       system_clkgroup 
clk             50.0 MHz      20.000        declared     default_clkgroup
u0.baud_clk     50.0 MHz      20.000        declared     default_clkgroup
=========================================================================
