---------------------------------------
Resource Usage Report for sipo 

Mapping to part: ac22ihd1000f53c1
Cell usage:
DFFR         8 uses
LUT4            1 use

I/O ports: 11
I/O primitives: 11
PADIN          3 uses
PADOUT         8 uses

I/O Register bits:                  0
Register bits not including I/Os:   8 (0%)

Mapping Summary:
Total  LUTs: 1 (0%)

