

#### START OF CLOCK OPTIMIZATION REPORT #####[

0 non-gated/non-generated clock tree(s) driving 0 clock pin(s) of sequential element(s)
8 gated/generated clock tree(s) driving 8 clock pin(s) of sequential element(s)
0 instances converted, 8 sequential instances remain driven by gated/generated clocks

= Non-Gated/Non-Generated Clocks =
************** None **************
----------------------------------
==================================
=================================================== Gated/Generated Clocks ====================================================
Clock Tree ID     Driving Element               Drive Element Type     Fanout     Sample Instance     Explanation              
-------------------------------------------------------------------------------------------------------------------------------
@K:CKID0001       un1_bus.reset_1_lut6_2_o5     LUT4                   1          bus.qdata[0]        No clocks found on inputs
@K:CKID0002       un1_bus.reset_7_lut6_2_o6     LUT3                   1          bus.qdata[1]        No clocks found on inputs
@K:CKID0003       un1_bus.reset_4_lut6_2_o5     LUT3                   1          bus.qdata[2]        No clocks found on inputs
@K:CKID0004       un1_bus.reset_3_lut6_2_o5     LUT3                   1          bus.qdata[3]        No clocks found on inputs
@K:CKID0005       un1_bus.reset_4_lut6_2_o6     LUT3                   1          bus.qdata[4]        No clocks found on inputs
@K:CKID0006       un1_bus.reset_3_lut6_2_o6     LUT3                   1          bus.qdata[5]        No clocks found on inputs
@K:CKID0007       un1_bus.reset_2_lut6_2_o6     LUT3                   1          bus.qdata[6]        No clocks found on inputs
@K:CKID0008       un1_bus.reset_1_lut6_2_o6     LUT3                   1          bus.qdata[7]        No clocks found on inputs
===============================================================================================================================


##### END OF CLOCK OPTIMIZATION REPORT ######]

