---------------------------------------
Resource Usage Report for counter 

Mapping to part: xc7vx485tffg1157-2
Cell usage:
FDR             8 uses
GND             1 use
MUXCY_L         8 uses
VCC             1 use
XORCY           8 uses
LUT1            1 use
LUT2            8 uses

I/O ports: 11
I/O primitives: 11
IBUF           2 uses
IBUFG          1 use
OBUF           8 uses

BUFG           1 use

I/O Register bits:                  0
Register bits not including I/Os:   8 (0%)

Global Clock Buffers: 1 of 32 (3%)


Mapping Summary:
Total  LUTs: 9 (0%)

Distribution of All Consumed LUTs = LUT1 + LUT2 
Distribution of All Consumed Luts 9 = 1 + 8 


 Number of unique control sets:              1

