---------------------------------------
Resource Usage Report for top 

Mapping to part: xc6slx9csg225-2
Cell usage:
GND             1 use
VCC             1 use

I/O ports: 14
I/O primitives: 3
OBUFT          3 uses

I/O Register bits:                  0
Register bits not including I/Os:   0 (0%)

Mapping Summary:
Total  LUTs: 0 (0%)


 Number of unique control sets:              0

