---------------------------------------
Resource Usage Report for baud_gen 

Mapping to part: xc6slx9csg225-2
Cell usage:
FDC             9 uses
MUXF7           5 uses
LUT1            2 uses
LUT2            1 use
LUT3            1 use
LUT4            2 uses
LUT5            1 use
LUT6            7 uses

I/O ports: 3
I/O primitives: 3
IBUF           1 use
IBUFG          1 use
OBUF           1 use

BUFG           1 use

I/O Register bits:                  0
Register bits not including I/Os:   9 (0%)

Global Clock Buffers: 1 of 16 (6%)


Mapping Summary:
Total  LUTs: 14 (0%)

Distribution of All Consumed LUTs = LUT1 + LUT2 + LUT3 + LUT4 + LUT5 + LUT6 
Distribution of All Consumed Luts 14 = 2 + 1 + 1 + 2 + 1 + 7 


 Number of unique control sets:              1

